<?xml version="1.0" encoding="utf-8"?>
<!-- Generator: Adobe Illustrator 19.2.1, SVG Export Plug-In . SVG Version: 6.00 Build 0)  -->
<svg version="1.1" id="圖層_1" xmlns="http://www.w3.org/2000/svg" xmlns:xlink="http://www.w3.org/1999/xlink" x="0px" y="0px"
	 viewBox="0 0 8 14" style="enable-background:new 0 0 8 14;" xml:space="preserve">
<style type="text/css">
	.st0{fill:#FFFFFF;}
</style>
<g>
	<path class="st0" d="M1,13.726c-0.264,0-0.527-0.104-0.724-0.31c-0.381-0.399-0.366-1.033,0.033-1.414L5.552,7L0.31,1.997
		C-0.09,1.615-0.105,0.982,0.276,0.583C0.659,0.183,1.291,0.17,1.69,0.55l6,5.727C7.888,6.465,8,6.726,8,7S7.888,7.534,7.69,7.723
		l-6,5.727C1.497,13.635,1.248,13.726,1,13.726z"/>
</g>
</svg>
